\relax 
\bibstyle{abbrv}
\babel@aux{english}{}
\@writefile{toc}{\contentsline {section}{\numberline {1}EXECUTIVE SUMMARY}{I}\protected@file@percent }
\newlabel{sec:EXEC}{{1}{I}}
\@writefile{toc}{\contentsline {section}{\numberline {2}TABLE OF CONTENTS}{II}\protected@file@percent }
\newlabel{sec:TOC}{{2}{II}}
\citation{web:pay}
\citation{web:crude}
\citation{web:gasoline}
\citation{web:CPI}
\citation{web:water}
\citation{web:natgas}
\citation{web:spdr}
\citation{web:gasoline}
\citation{web:steel}
\citation{web:CEPCI}
\@writefile{toc}{\contentsline {section}{\numberline {A}INTRODUCTION}{1}\protected@file@percent }
\newlabel{sec:INTRO}{{A}{1}}
\@writefile{lof}{\contentsline {figure}{\numberline {1}{\ignorespaces Block Flow Diagram for Option 1.\relax }}{1}\protected@file@percent }
\providecommand*\caption@xref[2]{\@setref\relax\@undefined{#1}}
\newlabel{fig:option1}{{1}{1}}
\@writefile{lof}{\contentsline {figure}{\numberline {2}{\ignorespaces Block Flow Diagram for Option 2.\relax }}{2}\protected@file@percent }
\newlabel{fig:option2}{{2}{2}}
\@writefile{toc}{\contentsline {section}{\numberline {B}DESIGN BASIS}{2}\protected@file@percent }
\newlabel{sec:BASIS}{{B}{2}}
\newlabel{tab:Feed}{{1}{2}}
\@writefile{lot}{\contentsline {table}{\numberline {1}{\ignorespaces Flow rates of each component in LSR Feed from Crude Unit.\relax }}{2}\protected@file@percent }
\newlabel{tab:Cost}{{2}{3}}
\@writefile{lot}{\contentsline {table}{\numberline {2}{\ignorespaces Price of Feed and Revenue Streams.\relax }}{3}\protected@file@percent }
\newlabel{tab:UTL}{{3}{3}}
\@writefile{lot}{\contentsline {table}{\numberline {3}{\ignorespaces Cost of readily available utilities in Ponca City, OK.\relax }}{3}\protected@file@percent }
\newlabel{tab:STEAM}{{4}{3}}
\@writefile{lot}{\contentsline {table}{\numberline {4}{\ignorespaces Steam specifications related to readily available steam in Ponca City, OK.\relax }}{3}\protected@file@percent }
\newlabel{tab:SPECS}{{5}{4}}
\@writefile{lot}{\contentsline {table}{\numberline {5}{\ignorespaces Specifications related to readily available utilities in Ponca City, OK.\relax }}{4}\protected@file@percent }
\citation{book:design}
\citation{book:design}
\citation{article:1}
\citation{book:GPSA}
\citation{book:design}
\citation{book:design}
\citation{book:design}
\citation{book:design}
\citation{book:design}
\citation{web:HEX}
\@writefile{toc}{\contentsline {section}{\numberline {C}TECHNICAL DISCUSSION}{5}\protected@file@percent }
\newlabel{sec:TECHDISC}{{C}{5}}
\@writefile{toc}{\contentsline {subsection}{\numberline {C.a}\textit  {Design Philosophy}}{5}\protected@file@percent }
\newlabel{subsec:desphil}{{C.a}{5}}
\citation{book:GPSA}
\@writefile{toc}{\contentsline {subsection}{\numberline {C.b}\textit  {Description of the Process}}{6}\protected@file@percent }
\newlabel{subsec:desproc}{{C.b}{6}}
\newlabel{tab:molcomp}{{6}{7}}
\@writefile{lot}{\contentsline {table}{\numberline {6}{\ignorespaces Molar compositions for all streams associated with the Depentanizer Column. \relax }}{7}\protected@file@percent }
\newlabel{tab:dstream}{{7}{7}}
\@writefile{lot}{\contentsline {table}{\numberline {7}{\ignorespaces Depentanizer Column Stream Conditions. \relax }}{7}\protected@file@percent }
\newlabel{RF1}{8}
\@writefile{lof}{\contentsline {figure}{\numberline {3}{\ignorespaces PFD\relax }}{8}\protected@file@percent }
\newlabel{RF2}{9}
\@writefile{lof}{\contentsline {figure}{\numberline {4}{\ignorespaces Condensed Stream Summary.\relax }}{9}\protected@file@percent }
\newlabel{RF3}{10}
\@writefile{lof}{\contentsline {figure}{\numberline {5}{\ignorespaces Stream Summary.\relax }}{10}\protected@file@percent }
\@writefile{lot}{\contentsline {table}{\numberline {8}{\ignorespaces Process Flow Diagram Legend.\relax }}{11}\protected@file@percent }
\newlabel{tab:flowsymb}{{8}{11}}
\newlabel{tab:hextemp}{{9}{12}}
\@writefile{lot}{\contentsline {table}{\numberline {9}{\ignorespaces Depentanizer Heat Exchanger Profile. \relax }}{12}\protected@file@percent }
\newlabel{tab:molcomp_deb}{{10}{12}}
\@writefile{lot}{\contentsline {table}{\numberline {10}{\ignorespaces Molar compositions for all streams associated with the Debutanizer Column. \relax }}{12}\protected@file@percent }
\citation{article:1}
\citation{book:GPSA}
\newlabel{tab:dstream_deb}{{11}{13}}
\@writefile{lot}{\contentsline {table}{\numberline {11}{\ignorespaces Debutanizer Column Stream Conditions. \relax }}{13}\protected@file@percent }
\newlabel{tab:deb_temp}{{12}{14}}
\@writefile{lot}{\contentsline {table}{\numberline {12}{\ignorespaces Debutanizer Column Stream Conditions. \relax }}{14}\protected@file@percent }
\@writefile{toc}{\contentsline {subsection}{\numberline {C.c}\textit  {Technical Issues and Design Practices}}{14}\protected@file@percent }
\newlabel{subsec:techiss}{{C.c}{14}}
\@writefile{lot}{\contentsline {table}{\numberline {13}{\ignorespaces Depentanizer Optimization.\relax }}{15}\protected@file@percent }
\newlabel{tab:dep_mintab}{{13}{15}}
\@writefile{lof}{\contentsline {figure}{\numberline {6}{\ignorespaces Depentanizer Optimization.\relax }}{15}\protected@file@percent }
\newlabel{fig:dep_minfig}{{6}{15}}
\@writefile{lot}{\contentsline {table}{\numberline {14}{\ignorespaces Debutanizer Optimization.\relax }}{16}\protected@file@percent }
\newlabel{tab:deb_mintab}{{14}{16}}
\@writefile{lof}{\contentsline {figure}{\numberline {7}{\ignorespaces Debutanizer Optimization.\relax }}{16}\protected@file@percent }
\newlabel{fig:deb_minfig}{{7}{16}}
\@writefile{lot}{\contentsline {table}{\numberline {15}{\ignorespaces Equipment Summary Table.\relax }}{17}\protected@file@percent }
\newlabel{tab:equipsum1}{{15}{17}}
\@writefile{lof}{\contentsline {figure}{\numberline {8}{\ignorespaces Maximizing NPV by adjusting number of plates.\relax }}{18}\protected@file@percent }
\newlabel{fig:proof}{{8}{18}}
\@writefile{lot}{\contentsline {table}{\numberline {16}{\ignorespaces Equipment Summary Table cont.\relax }}{18}\protected@file@percent }
\newlabel{tab:equipsum2}{{16}{18}}
\citation{book:design}
\citation{web:osha}
\citation{web:tox}
\citation{web:perms}
\citation{web:perm}
\citation{web:crude}
\citation{web:gasoline}
\citation{web:crude}
\citation{web:gasoline}
\@writefile{toc}{\contentsline {subsection}{\numberline {C.d}\textit  {Safety Concerns}}{20}\protected@file@percent }
\newlabel{subsec:safety}{{C.d}{20}}
\@writefile{toc}{\contentsline {subsection}{\numberline {C.e}\textit  {Environmental Concerns}}{20}\protected@file@percent }
\newlabel{subsec:safety}{{C.e}{20}}
\@writefile{toc}{\contentsline {section}{\numberline {D}ECONOMIC ANALYSIS}{20}\protected@file@percent }
\@writefile{toc}{\contentsline {subsection}{\numberline {D.a}Revenue and Utility Costs}{20}\protected@file@percent }
\newlabel{subsec:revutlcost}{{D.a}{20}}
\@writefile{toc}{\contentsline {subsubsection}{\numberline {D.a.1}\textit  {Raw Materials}}{20}\protected@file@percent }
\newlabel{subsec:raw}{{D.a.1}{20}}
\@writefile{lof}{\contentsline {figure}{\numberline {9}{\ignorespaces Relationship between crude oil and its products\cite  {web:crude}\cite  {web:gasoline}.\relax }}{21}\protected@file@percent }
\newlabel{fig:deltaoil}{{9}{21}}
\@writefile{lof}{\contentsline {figure}{\numberline {10}{\ignorespaces Operating Costs Proportions\relax }}{21}\protected@file@percent }
\newlabel{fig:piechart}{{10}{21}}
\@writefile{toc}{\contentsline {subsubsection}{\numberline {D.a.2}\textit  {Ponca City, OK Weather}}{22}\protected@file@percent }
\newlabel{subsec:weather}{{D.a.2}{22}}
\@writefile{lof}{\contentsline {figure}{\numberline {11}{\ignorespaces Average monthly high and low temperatures in Ponca City, OK.\relax }}{22}\protected@file@percent }
\newlabel{fig:weather}{{11}{22}}
\citation{web:water}
\citation{web:CPI}
\citation{web:water}
\citation{web:natgas}
\citation{web:CPI}
\citation{web:water}
\citation{web:natgas}
\citation{web:pay}
\citation{web:pay}
\@writefile{toc}{\contentsline {subsubsection}{\numberline {D.a.3}\textit  {Utility costs}}{23}\protected@file@percent }
\newlabel{subsec:utlcosts}{{D.a.3}{23}}
\@writefile{lof}{\contentsline {figure}{\numberline {12}{\ignorespaces Relationship between Average Initial Utility Index and Price of Common Utilities.\cite  {web:CPI}\cite  {web:water}\cite  {web:natgas}\relax }}{23}\protected@file@percent }
\newlabel{fig:utlcost}{{12}{23}}
\@writefile{lot}{\contentsline {table}{\numberline {17}{\ignorespaces Annual Utility and Operating Costs for Option 2.\cite  {web:pay}\relax }}{24}\protected@file@percent }
\newlabel{tab:utlstreamcost}{{17}{24}}
\citation{web:CEPCI}
\@writefile{toc}{\contentsline {subsection}{\numberline {D.b}\textit  {Capital Cost Estimates}}{25}\protected@file@percent }
\newlabel{subsec:costest}{{D.b}{25}}
\@writefile{lot}{\contentsline {table}{\numberline {18}{\ignorespaces Initial Cost Values\relax }}{25}\protected@file@percent }
\newlabel{fig:ictable}{{18}{25}}
\citation{web:spdr}
\citation{web:gasoline}
\citation{web:steel}
\citation{web:CEPCI}
\citation{web:spdr}
\citation{web:gasoline}
\citation{web:steel}
\citation{web:CEPCI}
\@writefile{lof}{\contentsline {figure}{\numberline {13}{\ignorespaces Relationship between the Average Industrial Equipment Costing Index and market performance.\cite  {web:spdr}\cite  {web:gasoline}\cite  {web:steel}\cite  {web:CEPCI} \relax }}{26}\protected@file@percent }
\newlabel{fig:initialcost}{{13}{26}}
\@writefile{toc}{\contentsline {subsection}{\numberline {D.c}\textit  {NPV Analysis}}{27}\protected@file@percent }
\@writefile{toc}{\contentsline {subsubsection}{\numberline {D.c.1}Cumulative NPV}{27}\protected@file@percent }
\@writefile{lof}{\contentsline {figure}{\numberline {14}{\ignorespaces Cumulative NPV vs Time. \relax }}{27}\protected@file@percent }
\newlabel{fig:cumnpv}{{14}{27}}
\newlabel{RF4}{28}
\@writefile{lof}{\contentsline {figure}{\numberline {15}{\ignorespaces Cash Flow Diagram for Option 2.\relax }}{28}\protected@file@percent }
\newlabel{fig:CF2}{{15}{28}}
\newlabel{RF5}{29}
\@writefile{lof}{\contentsline {figure}{\numberline {16}{\ignorespaces Cash Flow Diagram for Option 1.\relax }}{29}\protected@file@percent }
\newlabel{fig:CF1}{{16}{29}}
\@writefile{toc}{\contentsline {subsubsection}{\numberline {D.c.2}Comparing Options}{30}\protected@file@percent }
\newlabel{tab:incanal}{{19}{30}}
\@writefile{lot}{\contentsline {table}{\numberline {19}{\ignorespaces Incremental Analysis. \relax }}{30}\protected@file@percent }
\@writefile{toc}{\contentsline {subsection}{\numberline {D.d}\textit  {Sensitivity Analysis}}{30}\protected@file@percent }
\@writefile{lof}{\contentsline {figure}{\numberline {17}{\ignorespaces Sensitivity Analysis for Option 2.\relax }}{30}\protected@file@percent }
\newlabel{fig:tornader2}{{17}{30}}
\@writefile{toc}{\contentsline {section}{\numberline {E}CONCLUSIONS}{31}\protected@file@percent }
\newlabel{sec:CONC}{{E}{31}}
\@writefile{toc}{\contentsline {section}{\numberline {F}RECOMMENDATIONS}{31}\protected@file@percent }
\newlabel{sec:REC}{{F}{31}}
\bibdata{bib_Design_latex}
\bibcite{web:pay}{1}
\bibcite{web:HEX}{2}
\bibcite{web:perms}{3}
\bibcite{web:CEPCI}{4}
\bibcite{web:perm}{5}
\bibcite{web:crude}{6}
\bibcite{web:tox}{7}
\bibcite{web:natgas}{8}
\bibcite{web:steel}{9}
\bibcite{web:CPI}{10}
\bibcite{web:spdr}{11}
\bibcite{web:osha}{12}
\bibcite{web:water}{13}
\bibcite{web:gasoline}{14}
\bibcite{book:GPSA}{15}
\bibcite{article:1}{16}
\bibcite{book:design}{17}
\@writefile{toc}{\contentsline {section}{\numberline {A}Appendix: Figures not included in text}{34}\protected@file@percent }
\newlabel{app:A}{{A}{34}}
\@writefile{lof}{\contentsline {figure}{\numberline {18}{\ignorespaces Sensitivity Analysis for Option 1.\relax }}{34}\protected@file@percent }
\newlabel{fig:tornader1}{{18}{34}}
\@writefile{lof}{\contentsline {figure}{\numberline {19}{\ignorespaces Condenser and Reboiler Temperature Profiles.\relax }}{36}\protected@file@percent }
\@writefile{toc}{\contentsline {section}{\numberline {B}Appendix: Sizing Calculations}{36}\protected@file@percent }
\newlabel{app:B}{{B}{36}}
\@writefile{lot}{\contentsline {table}{\numberline {20}{\ignorespaces Debutanizer Costing Table.\relax }}{44}\protected@file@percent }
\@writefile{lot}{\contentsline {table}{\numberline {21}{\ignorespaces Depentanizer Costing Table.\relax }}{44}\protected@file@percent }
\@writefile{lot}{\contentsline {table}{\numberline {22}{\ignorespaces Depentanizer Heat Exchanger Costing.\relax }}{45}\protected@file@percent }
\@writefile{lot}{\contentsline {table}{\numberline {23}{\ignorespaces Debutanizer Heat Exchanger Costing.\relax }}{46}\protected@file@percent }
\@writefile{lot}{\contentsline {table}{\numberline {24}{\ignorespaces Reflux Drum Costing.\relax }}{47}\protected@file@percent }
\@writefile{lot}{\contentsline {table}{\numberline {25}{\ignorespaces Pump Costing.\relax }}{48}\protected@file@percent }
\@writefile{lot}{\contentsline {table}{\numberline {26}{\ignorespaces Pump Calculations.\relax }}{49}\protected@file@percent }
\@writefile{toc}{\contentsline {section}{\numberline {C}Appendix: Utility Calculations}{50}\protected@file@percent }
\newlabel{app:C}{{C}{50}}
\@writefile{lof}{\contentsline {figure}{\numberline {20}{\ignorespaces Overall Cost Balance.\relax }}{50}\protected@file@percent }
\@writefile{lot}{\contentsline {table}{\numberline {27}{\ignorespaces Overall Costing Tables for Option 1 and Option 2\relax }}{50}\protected@file@percent }
\newlabel{RF6}{51}
\@writefile{lof}{\contentsline {figure}{\numberline {21}{\ignorespaces Utility Cost Calculations.\relax }}{51}\protected@file@percent }
\@writefile{lof}{\contentsline {figure}{\numberline {22}{\ignorespaces Utility Streams.\relax }}{52}\protected@file@percent }
\@writefile{toc}{\contentsline {section}{\numberline {D}Aspen Data}{53}\protected@file@percent }
\newlabel{RF7}{54}
\@writefile{lof}{\contentsline {figure}{\numberline {23}{\ignorespaces The Aspen HYSYS Flow Diagram.\relax }}{54}\protected@file@percent }
