\babel@toc {english}{}
\contentsline {section}{\numberline {A}Computational Assignment 3 (Test 1)}{2}% 
\contentsline {section}{\numberline {B}Computational Assignment 4 (Test 2)}{3}% 
\contentsline {section}{\numberline {C}Computational Assignment 4 (Test 3)}{4}% 
