\relax 
\bibstyle{abbrv}
\babel@aux{english}{}
\@writefile{toc}{\contentsline {section}{\numberline {A}Computational Assignment 3 (Test 1)}{2}\protected@file@percent }
\newlabel{CA31}{{A}{2}}
\@writefile{lof}{\contentsline {figure}{\numberline {1}{\ignorespaces Equations used in Test 1 come from Computational Assignment 3. This is a common Polymath system of differential Equations.\relax }}{2}\protected@file@percent }
\@writefile{lof}{\contentsline {figure}{\numberline {2}{\ignorespaces Plot of the system of differential equations described above. This plot contains T, Fa, Fb, and Fc.\relax }}{2}\protected@file@percent }
\@writefile{toc}{\contentsline {section}{\numberline {B}Computational Assignment 4 (Test 2)}{3}\protected@file@percent }
\newlabel{CA42}{{B}{3}}
\@writefile{lof}{\contentsline {figure}{\numberline {3}{\ignorespaces Equations used in Test 1 come from Computational Assignment 4 three-lump model. This is a common Polymath system of differential Equations.\relax }}{3}\protected@file@percent }
\@writefile{lof}{\contentsline {figure}{\numberline {4}{\ignorespaces Plot of the system of differential equations described above. This plot contains y1, y2, and y3.\relax }}{3}\protected@file@percent }
\@writefile{toc}{\contentsline {section}{\numberline {C}Computational Assignment 4 (Test 3)}{4}\protected@file@percent }
\newlabel{CA43}{{C}{4}}
\@writefile{lof}{\contentsline {figure}{\numberline {5}{\ignorespaces Equations used in Test 1 come from Computational Assignment 4 four-lump model. This is a common Polymath system of differential Equations.\relax }}{4}\protected@file@percent }
\@writefile{lof}{\contentsline {figure}{\numberline {6}{\ignorespaces Plot of the system of differential equations described above. This plot contains y1, y2, y3, and y4.\relax }}{4}\protected@file@percent }
